{"results":[{"vote_count":2835,"id":353486,"video":false,"vote_average":6.5,"title":"Jumanji: Bienvenidos a la jungla","popularity":105.483862,"poster_path":"\/thmLO2GWf6NcuNOoYtv2gOomE4x.jpg","original_language":"en","original_title":"Jumanji: Welcome to the Jungle","genre_ids":[28,12,35,10751],"backdrop_path":"\/rz3TAyd5kmiJmozp3GUbYeB5Kep.jpg","adult":false,"overview":"Veinte años después de los acontecimientos de la primera película, cuatro adolescentes son transportados al mundo mágico de Jumanji gracias a una versión en videojuego del mismo. Jugando como los personajes que eligieron, ellos deberán superar las pruebas del juego para poder ganar y regresar a casa.","release_date":"2017-12-09"},{"vote_count":406,"id":401981,"video":false,"vote_average":6.4,"title":"Gorrión rojo","popularity":84.170477,"poster_path":"\/wt6wL8ZnzqSsg2xUBRdfJn3ELVa.jpg","original_language":"en","original_title":"Red Sparrow","genre_ids":[9648,53],"backdrop_path":"\/sGzuQYSTwJvLBc2PnuSVLHhuFeh.jpg","adult":false,"overview":"Cuando una lesión pone fin a su carrera, Dominika y su madre se enfrentan a un futuro oscuro e incierto. Por este motivo es manipulada para convertirse en la nueva recluta de una academia de espías, donde las agentes son llamadas “gorriones”. Es una agencia secreta de inteligencia que entrena a jóvenes excepcionales como ella para usar sus cuerpos y mentes como armas. Tras un entrenamiento sádico y perverso, se convierte en la espía “Gorrión” más peligrosa que el programa jamás haya producido. Dominika debe reconciliar la persona que una vez fue con el poder que ahora domina, poniendo su propia vida y la de todos a los que ama en peligro, incluyendo a un agente de la CIA que intenta convencerla de que él es la única persona en quien puede confiar.","release_date":"2018-03-01"},{"vote_count":3,"id":268896,"video":false,"vote_average":5.3,"title":"Pacific Rim 2: Insurrección","popularity":35.898188,"poster_path":"\/v5HlmJK9bdeHxN2QhaFP1ivjX3U.jpg","original_language":"en","original_title":"Pacific Rim: Uprising","genre_ids":[28,14,878],"backdrop_path":"\/jj8qgyrfQ12ZLZSY1PEbA3FRkfY.jpg","adult":false,"overview":"Un futuro cercano. Después de la primera invasión que sufrió la humanidad, la lucha aun no ha terminado. El planeta vuelve a ser asediado por los Kaiju, una raza de alienígenas colosales que emergen desde un portal interdimensional, con el objetivo de destruir a la raza humana.  Ante esta nueva amenaza para la cual los humanos no están preparados, los Jaegers, robots gigantes de guerra pilotados por dos personas para sobrellevar la inmensa carga neural que conlleva manipularlos, ya no están a la altura de lo que se les viene encima. Será entonces cuando los supervivientes de la primera invasión, además de nuevos personajes como el hijo de Pentecost (John Boyega), tendrán que idear la manera de sorprender al enorme enemigo, apostando por nuevas estrategias defensivas y de ataque. Con la Tierra en ruinas e intentando reconstruirse, esta nueva batalla puede ser decisiva para el futuro.","release_date":"2018-03-21"},{"vote_count":126,"id":395990,"video":false,"vote_average":4.7,"title":"El justiciero","popularity":34.413925,"poster_path":"\/wamM5AyPAeNPNPfjWRI9WD8dweQ.jpg","original_language":"en","original_title":"Death Wish","genre_ids":[28,80,18,53],"backdrop_path":"\/g1ovo0YhL9FcZmgoW4Fx6F4x1e6.jpg","adult":false,"overview":"Paul Kersey (Bruce Willis) es un famoso cirujano que vive con su familia en Nueva York. Un día, su esposa (Elisabeth Shue) y su hija (Camila Morrone) son brutalmente atacadas en su casa. Paul, que siempre había sido un tipo tranquilo, siente cómo la sed de venganza va apoderándose de él. Con la policía sobrecargada de crímenes, decide tomar la justicia por su mano e ir en busca de los agresores de su familia y de paso enfrentarse a todo tipo de criminales de la Gran Manzana. A medida que las víctimas acaparan la atención de los medios, la ciudad se pregunta si este vengador es un ángel guardián... o un simple justiciero.","release_date":"2018-03-02"},{"vote_count":130,"id":407451,"video":false,"vote_average":5.2,"title":"Un pliegue en el tiempo","popularity":33.514289,"poster_path":"\/f1ZGSfnJrkJMZQVpfw3vVX2Hdu9.jpg","original_language":"en","original_title":"A Wrinkle in Time","genre_ids":[12,878,10751,14],"backdrop_path":"\/zqUaMojohr96itJYCE3W1NauTn7.jpg","adult":false,"overview":"Una épica aventura basada en la clásica historia de Madeleine L'Engle, que transporta a la audiencia a través de diferentes dimensiones en tiempo y espacio. Con la ayuda de tres guías celestiales, una niña realiza un viaje transformador en el que descubriremos que la fortaleza interna se logra al aceptar nuestras individualidades, y que la mejor manera de triunfar sobre el miedo es viajar usando nuestra propia luz.","release_date":"2018-03-08"},{"vote_count":131,"id":445571,"video":false,"vote_average":7.5,"title":"Noche de Juegos","popularity":32.387021,"poster_path":"\/1wS89vns6cseCn4UHSqj97xKEKW.jpg","original_language":"en","original_title":"Game Night","genre_ids":[9648,35,80,28],"backdrop_path":"\/jknYekTVH1n7doNVj5wiCMKhx7u.jpg","adult":false,"overview":"Un grupo de amigos que se reúne de forma periódica para pasar una noche de juegos se encuentran con que el grado de complejidad se eleva cuando Brooks organiza un nuevo juego con un misterioso secuestro en el que incluye falsos matones y agentes federales. Pero cuando Brooks es secuestrado, comenzarán a dudar de si todo es parte del juego o por el contrario nada es lo que parece. El grupo de amigos estará uno encima del otro en el transcurso de esta caótica noche, pues cada pista los llevará a dar vuelcos inesperados. Sin reglas, sin puntos por ganar y sin una idea clara de quiénes son los jugadores, esta noche podría convertirse en lo más divertido que les ha pasado en la vida… o no.","release_date":"2018-02-22"},{"vote_count":16,"id":449176,"video":false,"vote_average":7.3,"title":"Con amor, Simon","popularity":32.163695,"poster_path":"\/5YUYg5q7QfC4IoNwNUtiwdiYKPr.jpg","original_language":"en","original_title":"Love, Simon","genre_ids":[35,18,10749],"backdrop_path":"\/vTmHn4nm3wlshGepK6annGCKRFT.jpg","adult":false,"overview":"Simon Spier es un joven 16 años que no se atreve a revelar su homosexualidad, ya que prefiere esperar al musical que se celebra en secundaria. Pero un día, uno de sus correos electrónicos llega a manos equivocadas y las cosas se complican extraordinariamente.","release_date":"2018-03-16"},{"vote_count":472,"id":369192,"video":false,"vote_average":7,"title":"La batalla de los sexos","popularity":25.543526,"poster_path":"\/bAP7bGzxMFQ0zhuVKkYtcTAoXtt.jpg","original_language":"en","original_title":"Battle of the Sexes","genre_ids":[35,18,36],"backdrop_path":"\/eR5335pOlOpY0sNsmKmuJJG4MnU.jpg","adult":false,"overview":"Crónica de la rivalidad existente entre el extenista profesional, de 55 años, Bobby Riggs, y su oponente de 29 años de edad, la carismática tenista Billie Jean King, quienes se enfrentaron en un partido legendario en 1973. Se quería entonces conocer si una tenista profesional femenina podía realmente vencer a un hombre (aunque fuera exprofesional), un evento que atrajo a más de 50 millones de estadounidenses y que se publicitó como \"La batalla de sexos\".","release_date":"2017-09-22"},{"vote_count":109,"id":468202,"video":false,"vote_average":7.2,"title":"La ragazza nella nebbia","popularity":25.441469,"poster_path":"\/eWINXglQ9JVxUuzouYK7arm9YT1.jpg","original_language":"it","original_title":"La ragazza nella nebbia","genre_ids":[80,53],"backdrop_path":"\/1r9UN54aVFTty9AlLwPkW6ZHVFl.jpg","adult":false,"overview":"La chica en la niebla, un thriller firmado por Donato Carrisi, cuenta con un elenco protagonizado por Toni Servillo, junto a Jean Reno y Alessio Boni.\r Un espeso banco de niebla rodea la aldea de Avechot, en el pequeño valle encajado entre los Alpes. La niebla que se traga las casas y las calles también cae sobre el automóvil del agente Vogel: el auto termina en una zanja y el hombre , a pesar de que ha salido del accidente, tiene su ropa cubierta de sangre. Perdido, sin recuerdos de las últimas horas, Vogel es seguido por un psiquiatra con el que rastrea los últimos meses turbulentos de su vida.","release_date":"2017-10-26"},{"vote_count":975,"id":446354,"video":false,"vote_average":7,"title":"Los archivos del Pentágono","popularity":24.682265,"poster_path":"\/fk8jtKxT7Bhwe8aUKV2WaNc3wwN.jpg","original_language":"en","original_title":"The Post","genre_ids":[18,36],"backdrop_path":"\/2LR3XKthtguN7vOz99Q91IeEl1i.jpg","adult":false,"overview":"El editor del Washington Post Ben Bradlee (Tom Hanks) y la publisher Katharine Graham (Meryl Streep) lograron en 1971 publicar unos documentos filtrados sobre el Gobierno de Estados Unidos en los que se demostraba que la administración de Lyndon B. Johnson había mentido a los ciudadanos sobre la guerra de Vietnam. Esta gran revelación logró dañar a la administración de Richard Nixon.","release_date":"2017-12-22"},{"vote_count":5,"id":333339,"video":false,"vote_average":0,"title":"Ready Player One","popularity":24.502356,"poster_path":"\/pU1ULUq8D3iRxl1fdX2lZIzdHuI.jpg","original_language":"en","original_title":"Ready Player One","genre_ids":[12,878,28],"backdrop_path":"\/oDhO55PzofdAumMsVDi2rxOVABD.jpg","adult":false,"overview":"Año 2044. Wade Watts es un adolescente al que le gusta evadirse del cada vez más sombrío mundo real a través de una popular utopía virtual a escala global llamada Oasis, hasta que su excéntrico y multimillonario creador muere. Antes de morir, ofrece su fortuna como premio a una elaborada búsqueda del tesoro a través de los rincones más inhóspitos de su creación. Será el punto de partida para que Wade se enfrente a jugadores, poderosos enemigos corporativos y otros competidores despiadados dispuestos a hacer lo que sea, tanto dentro de Oasis como del mundo real, para hacerse con el premio.","release_date":"2018-03-28"},{"vote_count":29,"id":381719,"video":false,"vote_average":5.3,"title":"Peter Rabbit","popularity":24.361506,"poster_path":"\/pVjj4rls2UdWwt6ScIrHHgjFyI6.jpg","original_language":"en","original_title":"Peter Rabbit","genre_ids":[16],"backdrop_path":"\/vBIvSqbSNbABqAqP92utXzSXUhE.jpg","adult":false,"overview":"Sony Pictures prepara esta película mezcla de acción real y animación su argumento gira en torno a la rivalidad entre Peter Rabbit, un travieso conejo, y Mr. McGregor, un hombre un tanto antipático que intenta mantener su jardín libre de conejos.","release_date":"2018-02-07"},{"vote_count":988,"id":395834,"video":false,"vote_average":7.4,"title":"Wind River","popularity":24.298817,"poster_path":"\/pySivdR845Hom4u4T2WNkJxe6Ad.jpg","original_language":"en","original_title":"Wind River","genre_ids":[80,18,9648,53],"backdrop_path":"\/iF9d73lbtDYeCsPhQmjtkEmlrYG.jpg","adult":false,"overview":"Una agente del FBI se alía con un veterano rastreador local para investigar un asesinato ocurrido en una reserva de nativos americanos... Ópera prima del guionista de \"Sicario\" y \"Comanchería\".","release_date":"2017-08-03"},{"vote_count":88,"id":383709,"video":false,"vote_average":6.1,"title":"Wonderstruck.El museo de las maravillas","popularity":21.324391,"poster_path":"\/zv2dXgqVq2NY4xzDHIoBNCSru6o.jpg","original_language":"en","original_title":"Wonderstruck","genre_ids":[18],"backdrop_path":"\/bI9VoPV1gYpBw4yjbYzWwhTh92g.jpg","adult":false,"overview":"Ben y Rose son niños de dos épocas distintas, que desean en secreto que sus vidas sean diferentes. Ben sueña con el padre que nunca conoció, mientras Rose lo hace con una misteriosa actriz cuya vida narra en un libro de recuerdos. Cuando Ben descubre una pista en casa y Rose lee un tentador titular en el periódico, ambos comienzan una búsqueda que se desarrollará con una fascinante simetría.","release_date":"2017-10-13"},{"vote_count":134,"id":402897,"video":false,"vote_average":7.5,"title":"La muerte de Stalin","popularity":21.003364,"poster_path":"\/xZ3dW1ccGWG2M0zQWoc3cZGFRnx.jpg","original_language":"en","original_title":"The Death of Stalin","genre_ids":[35,36],"backdrop_path":"\/tx5TFMF85qU2Ug4TRIGQZbDpzFA.jpg","adult":false,"overview":"La noche del 2 de marzo de 1953 murió un hombre. Ese hombre es Josef Stalin, dictador, tirano, carnicero y Secretario General de la URSS. Y si juegas tus cartas bien, el puesto ahora puede ser tuyo. Una sátira sobre los días previos al funeral del padre de la nación. Dos jornadas de duras peleas por el poder absoluto a través de manipulaciones, lujurias y traiciones.","release_date":"2017-10-20"},{"vote_count":3,"id":370567,"video":false,"vote_average":1,"title":"Sherlock Gnomes","popularity":19.978439,"poster_path":"\/nEKyrDJWjtouIhA1WzjNDhNfjIY.jpg","original_language":"en","original_title":"Sherlock Gnomes","genre_ids":[10749,16,35,10751,14,9648],"backdrop_path":"\/dmbD8FDr6DDdinGEs14HC2FmY2w.jpg","adult":false,"overview":"El jardín de los gnomos, Gnomeo y Juliet recurren al reconocido detective Sherlock Gnomes para investigar la misteriosa desaparición de otros adornos de jardín.","release_date":"2018-03-15"},{"vote_count":4,"id":433627,"video":false,"vote_average":7,"title":"7 días en Entebbe","popularity":19.774338,"poster_path":"\/tUsWgu9ZZBg9JXY1a05VznouoVY.jpg","original_language":"en","original_title":"7 Days in Entebbe","genre_ids":[53,18],"backdrop_path":"\/x9JU7olOsRM4xgesgWAqMupygLT.jpg","adult":false,"overview":"","release_date":"2018-03-16"},{"vote_count":518,"id":400617,"video":false,"vote_average":7.3,"title":"El hilo invisible","popularity":19.618628,"poster_path":"\/xjDdQcW9MDeimNltN7vqWUt3boo.jpg","original_language":"en","original_title":"Phantom Thread","genre_ids":[18,10749],"backdrop_path":"\/vbSvnP05N2UKTeVqENUQ1NdMHO4.jpg","adult":false,"overview":"En el Londres de la posguerra de 1950, el famoso modisto Reynolds Woodcock (Daniel Day-Lewis) y su hermana Cyril (Lesley Manville) están a la cabeza de la moda británica, vistiendo a la realeza, a estrellas de cine y a toda mujer elegante de la época. Un día el soltero Reynolds encuentra a Alma (Vicky Krieps), una joven que pronto se convierte en su musa y amante. Entonces su vida cuidadosamente controlada y planificada se ve alterada por la irrupción del amor.","release_date":"2017-12-25"},{"vote_count":171,"id":453201,"video":false,"vote_average":5.1,"title":"15:17 Tren a París","popularity":18.179775,"poster_path":"\/uijXJYJOY0v0VtCXwQ9UXAJHtPH.jpg","original_language":"en","original_title":"The 15:17 to Paris","genre_ids":[18,36,53],"backdrop_path":"\/gkkBhctHPGg8hrmtWbO3ySZoj4z.jpg","adult":false,"overview":"En la tarde del día 21 de agosto de 2015, el mundo observaba en silencio mientras los medios informaban sobre un ataque terrorista frustrado en el tren Thalys #9364 con destino a París—un atentado evitado por tres valientes jóvenes americanos que viajaban por Europa. La película narra el curso de las vidas de estos amigos, desde los avatares de su niñez para encontrar su destino, hasta la serie de eventos que precedieron al ataque. A lo largo de esta desgarradora experiencia, su amistad nunca flaqueó, convirtiéndola en su mejor arma, lo que les permitió salvar la vida de los más de 500 pasajeros a bordo.","release_date":"2018-02-02"},{"vote_count":4,"id":399174,"video":false,"vote_average":0,"title":"Isle of Dogs","popularity":18.174353,"poster_path":"\/ntxstZ7AXiWgqFjrQnq7GuN9XHU.jpg","original_language":"en","original_title":"Isle of Dogs","genre_ids":[12,35,16],"backdrop_path":"\/5YtXsLG9ncjjFyGZjoeV31CGf01.jpg","adult":false,"overview":"","release_date":"2018-03-23"}],"page":1,"total_results":251,"dates":{"maximum":"2018-04-15","minimum":"2018-03-26"},"total_pages":13}